[
{
    "model": "sites.site",
    "fields": {
        "domain": "quotes.kabisa.nl",
        "name": "kabisa"
    }
},
{
    "model": "users.user",
    "fields": {
        "password": "argon2$argon2i$v=19$m=512,t=2,p=2$VlpOREEwazFSU0FX$pPOXP4DujrbMzVownWoH0g",
        "last_login": null,
        "is_superuser": true,
        "username": "admin",
        "name": "Admin",
        "is_staff": true,
        "is_active": true,
        "date_joined": "2020-03-24T17:06:02.883Z",
        "email": "admin@kabisa.nl",
        "created_at": "2021-07-24T00:00:00.000Z",
        "updated_at": "2021-07-24T00:00:00.000Z",
        "groups": [],
        "user_permissions": []
    }
}
]
